# MagicaVoxel @ Ephtracy

# material
mtllib 1.mtl
usemtl palette

# normals
vn -1 0 0
vn 1 0 0
vn 0 0 1
vn 0 0 -1
vn 0 -1 0
vn 0 1 0

# texcoords
vt 0.978516 0.5
vt 0.982422 0.5
vt 0.990234 0.5
vt 0.994141 0.5

# verts
v -20 0 20
v -20 0 -20
v -20 20 16
v -20 20 2
v -20 20 -3
v -20 20 -17
v -20 35 -3
v -20 35 -17
v -20 36 16
v -20 36 2
v -20 42 16
v -20 42 2
v -20 42 -4
v -20 42 -17
v -20 55 16
v -20 55 2
v -20 55 -4
v -20 55 -17
v -20 60 20
v -20 60 -20
v -19 20 16
v -19 20 2
v -19 20 -3
v -19 20 -17
v -19 35 -3
v -19 35 -17
v -19 36 16
v -19 36 2
v -19 42 16
v -19 42 2
v -19 42 -4
v -19 42 -17
v -19 55 16
v -19 55 2
v -19 55 -4
v -19 55 -17
v -9 7 20
v -9 7 19
v -9 8 20
v -9 8 19
v -9 23 20
v -9 23 19
v -9 39 20
v -9 39 19
v -9 43 20
v -9 43 19
v -9 57 20
v -9 57 19
v -1 0 20
v -1 0 19
v -1 17 20
v -1 17 19
v 15 59 -15
v 15 59 -18
v 15 60 -18
v 15 60 -20
v 15 65 -15
v 15 65 -20
v 17 22 20
v 17 22 19
v 17 40 20
v 17 40 19
v 17 59 17
v 17 59 -15
v 17 60 17
v 17 60 -15
v 18 43 20
v 18 43 19
v 18 57 20
v 18 57 19
v -18 59 17
v -18 59 -18
v -18 60 17
v -18 60 -18
v -16 23 20
v -16 23 19
v -16 39 20
v -16 39 19
v -16 43 20
v -16 43 19
v -16 57 20
v -16 57 19
v -10 0 20
v -10 0 19
v -10 17 20
v -10 17 19
v -8 7 20
v -8 7 19
v -8 8 20
v -8 8 19
v -1 22 20
v -1 22 19
v -1 40 20
v -1 40 19
v -1 43 20
v -1 43 19
v -1 57 20
v -1 57 19
v 19 20 16
v 19 20 2
v 19 20 -3
v 19 20 -17
v 19 35 -3
v 19 35 -17
v 19 36 16
v 19 36 2
v 19 42 16
v 19 42 2
v 19 42 -4
v 19 42 -17
v 19 55 16
v 19 55 2
v 19 55 -4
v 19 55 -17
v 20 0 20
v 20 0 -20
v 20 20 16
v 20 20 2
v 20 20 -3
v 20 20 -17
v 20 35 -3
v 20 35 -17
v 20 36 16
v 20 36 2
v 20 42 16
v 20 42 2
v 20 42 -4
v 20 42 -17
v 20 55 16
v 20 55 2
v 20 55 -4
v 20 55 -17
v 20 60 20
v 20 60 -15
v 20 65 -15
v 20 65 -20
v -20 0 20
v -20 60 20
v -16 23 20
v -16 39 20
v -16 43 20
v -16 57 20
v -10 0 20
v -10 17 20
v -9 7 20
v -9 8 20
v -9 23 20
v -9 39 20
v -9 43 20
v -9 57 20
v -8 7 20
v -8 8 20
v -1 0 20
v -1 17 20
v -1 22 20
v -1 40 20
v -1 43 20
v -1 57 20
v 17 22 20
v 17 40 20
v 18 43 20
v 18 57 20
v 20 0 20
v 20 60 20
v -16 23 19
v -16 39 19
v -16 43 19
v -16 57 19
v -10 0 19
v -10 17 19
v -9 7 19
v -9 8 19
v -9 23 19
v -9 39 19
v -9 43 19
v -9 57 19
v -8 7 19
v -8 8 19
v -1 0 19
v -1 17 19
v -1 22 19
v -1 40 19
v -1 43 19
v -1 57 19
v 17 22 19
v 17 40 19
v 18 43 19
v 18 57 19
v -20 20 2
v -20 36 2
v -20 42 2
v -20 55 2
v -19 20 2
v -19 36 2
v -19 42 2
v -19 55 2
v 19 20 2
v 19 36 2
v 19 42 2
v 19 55 2
v 20 20 2
v 20 36 2
v 20 42 2
v 20 55 2
v 15 59 -15
v 15 65 -15
v 17 59 -15
v 17 60 -15
v 20 60 -15
v 20 65 -15
v -20 20 -17
v -20 35 -17
v -20 42 -17
v -20 55 -17
v -19 20 -17
v -19 35 -17
v -19 42 -17
v -19 55 -17
v 19 20 -17
v 19 35 -17
v 19 42 -17
v 19 55 -17
v 20 20 -17
v 20 35 -17
v 20 42 -17
v 20 55 -17
v -18 59 -18
v -18 60 -18
v 15 59 -18
v 15 60 -18
v -18 59 17
v -18 60 17
v 17 59 17
v 17 60 17
v -20 20 16
v -20 36 16
v -20 42 16
v -20 55 16
v -19 20 16
v -19 36 16
v -19 42 16
v -19 55 16
v 19 20 16
v 19 36 16
v 19 42 16
v 19 55 16
v 20 20 16
v 20 36 16
v 20 42 16
v 20 55 16
v -20 20 -3
v -20 35 -3
v -19 20 -3
v -19 35 -3
v 19 20 -3
v 19 35 -3
v 20 20 -3
v 20 35 -3
v -20 42 -4
v -20 55 -4
v -19 42 -4
v -19 55 -4
v 19 42 -4
v 19 55 -4
v 20 42 -4
v 20 55 -4
v -20 0 -20
v -20 60 -20
v 15 60 -20
v 15 65 -20
v 20 0 -20
v 20 65 -20
v -20 0 20
v -10 0 20
v -1 0 20
v 20 0 20
v -10 0 19
v -1 0 19
v -10 0 18
v -1 0 18
v -20 0 -20
v 20 0 -20
v -9 7 20
v -8 7 20
v -9 7 19
v -8 7 19
v -10 17 20
v -1 17 20
v -10 17 19
v -1 17 19
v -20 35 -3
v -19 35 -3
v 19 35 -3
v 20 35 -3
v -20 35 -17
v -19 35 -17
v 19 35 -17
v 20 35 -17
v -20 36 16
v -19 36 16
v 19 36 16
v 20 36 16
v -20 36 2
v -19 36 2
v 19 36 2
v 20 36 2
v -16 39 20
v -9 39 20
v -16 39 19
v -9 39 19
v -1 40 20
v 17 40 20
v -1 40 19
v 17 40 19
v -20 55 16
v -19 55 16
v 19 55 16
v 20 55 16
v -20 55 2
v -19 55 2
v 19 55 2
v 20 55 2
v -20 55 -4
v -19 55 -4
v 19 55 -4
v 20 55 -4
v -20 55 -17
v -19 55 -17
v 19 55 -17
v 20 55 -17
v -16 57 20
v -9 57 20
v -1 57 20
v 18 57 20
v -16 57 19
v -9 57 19
v -1 57 19
v 18 57 19
v -9 8 20
v -8 8 20
v -9 8 19
v -8 8 19
v -20 20 16
v -19 20 16
v 19 20 16
v 20 20 16
v -20 20 2
v -19 20 2
v 19 20 2
v 20 20 2
v -20 20 -3
v -19 20 -3
v 19 20 -3
v 20 20 -3
v -20 20 -17
v -19 20 -17
v 19 20 -17
v 20 20 -17
v -1 22 20
v 17 22 20
v -1 22 19
v 17 22 19
v -16 23 20
v -9 23 20
v -16 23 19
v -9 23 19
v -20 42 16
v -19 42 16
v 19 42 16
v 20 42 16
v -20 42 2
v -19 42 2
v 19 42 2
v 20 42 2
v -20 42 -4
v -19 42 -4
v 19 42 -4
v 20 42 -4
v -20 42 -17
v -19 42 -17
v 19 42 -17
v 20 42 -17
v -16 43 20
v -9 43 20
v -1 43 20
v 18 43 20
v -16 43 19
v -9 43 19
v -1 43 19
v 18 43 19
v -18 59 17
v 17 59 17
v 15 59 -15
v 17 59 -15
v -18 59 -18
v 15 59 -18
v -20 60 20
v 20 60 20
v -18 60 17
v 17 60 17
v 17 60 -15
v 20 60 -15
v -18 60 -18
v 15 60 -18
v -20 60 -20
v 15 60 -20
v 15 65 -15
v 20 65 -15
v 15 65 -20
v 20 65 -20

# faces
f 3/2/1 2/2/1 1/2/1
f 4/2/1 2/2/1 3/2/1
f 5/2/1 2/2/1 4/2/1
f 6/2/1 2/2/1 5/2/1
f 7/2/1 5/2/1 4/2/1
f 8/2/1 2/2/1 6/2/1
f 9/2/1 3/2/1 1/2/1
f 10/2/1 8/2/1 7/2/1
f 10/2/1 7/2/1 4/2/1
f 11/2/1 9/2/1 1/2/1
f 11/2/1 10/2/1 9/2/1
f 12/2/1 8/2/1 10/2/1
f 12/2/1 10/2/1 11/2/1
f 13/2/1 8/2/1 12/2/1
f 14/2/1 2/2/1 8/2/1
f 14/2/1 8/2/1 13/2/1
f 15/2/1 11/2/1 1/2/1
f 16/2/1 13/2/1 12/2/1
f 17/2/1 13/2/1 16/2/1
f 18/2/1 2/2/1 14/2/1
f 19/2/1 17/2/1 16/2/1
f 19/2/1 18/2/1 17/2/1
f 19/2/1 15/2/1 1/2/1
f 19/2/1 16/2/1 15/2/1
f 20/2/1 2/2/1 18/2/1
f 20/2/1 18/2/1 19/2/1
f 25/1/1 24/1/1 23/1/1
f 26/1/1 24/1/1 25/1/1
f 27/1/1 22/1/1 21/1/1
f 28/1/1 22/1/1 27/1/1
f 33/1/1 30/1/1 29/1/1
f 34/1/1 30/1/1 33/1/1
f 35/1/1 32/1/1 31/1/1
f 36/1/1 32/1/1 35/1/1
f 39/4/1 38/4/1 37/4/1
f 40/4/1 38/4/1 39/4/1
f 43/2/1 42/2/1 41/2/1
f 44/2/1 42/2/1 43/2/1
f 47/2/1 46/2/1 45/2/1
f 48/2/1 46/2/1 47/2/1
f 51/2/1 50/2/1 49/2/1
f 52/2/1 50/2/1 51/2/1
f 55/2/1 54/2/1 53/2/1
f 57/2/1 55/2/1 53/2/1
f 57/2/1 56/2/1 55/2/1
f 58/2/1 56/2/1 57/2/1
f 61/2/1 60/2/1 59/2/1
f 62/2/1 60/2/1 61/2/1
f 65/2/1 64/2/1 63/2/1
f 66/2/1 64/2/1 65/2/1
f 69/2/1 68/2/1 67/2/1
f 70/2/1 68/2/1 69/2/1
f 71/2/2 72/2/2 73/2/2
f 73/2/2 72/2/2 74/2/2
f 75/2/2 76/2/2 77/2/2
f 77/2/2 76/2/2 78/2/2
f 79/2/2 80/2/2 81/2/2
f 81/2/2 80/2/2 82/2/2
f 83/2/2 84/2/2 85/2/2
f 85/2/2 84/2/2 86/2/2
f 87/4/2 88/4/2 89/4/2
f 89/4/2 88/4/2 90/4/2
f 91/2/2 92/2/2 93/2/2
f 93/2/2 92/2/2 94/2/2
f 95/2/2 96/2/2 97/2/2
f 97/2/2 96/2/2 98/2/2
f 101/1/2 102/1/2 103/1/2
f 103/1/2 102/1/2 104/1/2
f 99/1/2 100/1/2 105/1/2
f 105/1/2 100/1/2 106/1/2
f 107/1/2 108/1/2 111/1/2
f 111/1/2 108/1/2 112/1/2
f 109/1/2 110/1/2 113/1/2
f 113/1/2 110/1/2 114/1/2
f 115/2/2 116/2/2 117/2/2
f 117/2/2 116/2/2 118/2/2
f 118/2/2 116/2/2 119/2/2
f 119/2/2 116/2/2 120/2/2
f 118/2/2 119/2/2 121/2/2
f 120/2/2 116/2/2 122/2/2
f 115/2/2 117/2/2 123/2/2
f 121/2/2 122/2/2 124/2/2
f 118/2/2 121/2/2 124/2/2
f 115/2/2 123/2/2 125/2/2
f 123/2/2 124/2/2 125/2/2
f 124/2/2 122/2/2 126/2/2
f 125/2/2 124/2/2 126/2/2
f 126/2/2 122/2/2 127/2/2
f 122/2/2 116/2/2 128/2/2
f 127/2/2 122/2/2 128/2/2
f 115/2/2 125/2/2 129/2/2
f 126/2/2 127/2/2 130/2/2
f 130/2/2 127/2/2 131/2/2
f 128/2/2 116/2/2 132/2/2
f 130/2/2 131/2/2 133/2/2
f 131/2/2 132/2/2 133/2/2
f 115/2/2 129/2/2 133/2/2
f 129/2/2 130/2/2 133/2/2
f 133/2/2 132/2/2 134/2/2
f 134/2/2 132/2/2 135/2/2
f 132/2/2 116/2/2 136/2/2
f 135/2/2 132/2/2 136/2/2
f 139/2/3 138/2/3 137/2/3
f 140/2/3 138/2/3 139/2/3
f 141/2/3 138/2/3 140/2/3
f 142/2/3 138/2/3 141/2/3
f 143/2/3 139/2/3 137/2/3
f 144/2/3 139/2/3 143/2/3
f 147/2/3 139/2/3 144/2/3
f 148/2/3 141/2/3 140/2/3
f 149/2/3 141/2/3 148/2/3
f 150/2/3 138/2/3 142/2/3
f 151/4/3 146/4/3 145/4/3
f 152/4/3 146/4/3 151/4/3
f 154/2/3 149/2/3 148/2/3
f 154/2/3 147/2/3 144/2/3
f 154/2/3 150/2/3 149/2/3
f 154/2/3 148/2/3 147/2/3
f 155/2/3 150/2/3 154/2/3
f 156/2/3 150/2/3 155/2/3
f 157/2/3 150/2/3 156/2/3
f 158/2/3 138/2/3 150/2/3
f 158/2/3 150/2/3 157/2/3
f 159/2/3 154/2/3 153/2/3
f 159/2/3 155/2/3 154/2/3
f 160/2/3 157/2/3 156/2/3
f 161/2/3 157/2/3 160/2/3
f 161/2/3 160/2/3 159/2/3
f 162/2/3 138/2/3 158/2/3
f 163/2/3 159/2/3 153/2/3
f 163/2/3 162/2/3 161/2/3
f 163/2/3 161/2/3 159/2/3
f 164/2/3 138/2/3 162/2/3
f 164/2/3 162/2/3 163/2/3
f 171/3/3 170/3/3 169/3/3
f 172/3/3 170/3/3 171/3/3
f 173/1/3 166/1/3 165/1/3
f 174/1/3 166/1/3 173/1/3
f 175/1/3 168/1/3 167/1/3
f 176/1/3 168/1/3 175/1/3
f 177/3/3 171/3/3 169/3/3
f 178/3/3 170/3/3 172/3/3
f 179/3/3 177/3/3 169/3/3
f 179/3/3 178/3/3 177/3/3
f 180/3/3 170/3/3 178/3/3
f 180/3/3 178/3/3 179/3/3
f 185/1/3 182/1/3 181/1/3
f 186/1/3 182/1/3 185/1/3
f 187/1/3 184/1/3 183/1/3
f 188/1/3 184/1/3 187/1/3
f 193/2/3 190/2/3 189/2/3
f 194/2/3 190/2/3 193/2/3
f 195/2/3 192/2/3 191/2/3
f 196/2/3 192/2/3 195/2/3
f 201/2/3 198/2/3 197/2/3
f 202/2/3 198/2/3 201/2/3
f 203/2/3 200/2/3 199/2/3
f 204/2/3 200/2/3 203/2/3
f 207/2/3 206/2/3 205/2/3
f 208/2/3 206/2/3 207/2/3
f 209/2/3 206/2/3 208/2/3
f 210/2/3 206/2/3 209/2/3
f 215/2/3 212/2/3 211/2/3
f 216/2/3 212/2/3 215/2/3
f 217/2/3 214/2/3 213/2/3
f 218/2/3 214/2/3 217/2/3
f 223/2/3 220/2/3 219/2/3
f 224/2/3 220/2/3 223/2/3
f 225/2/3 222/2/3 221/2/3
f 226/2/3 222/2/3 225/2/3
f 229/2/3 228/2/3 227/2/3
f 230/2/3 228/2/3 229/2/3
f 231/2/4 232/2/4 233/2/4
f 233/2/4 232/2/4 234/2/4
f 235/2/4 236/2/4 239/2/4
f 239/2/4 236/2/4 240/2/4
f 237/2/4 238/2/4 241/2/4
f 241/2/4 238/2/4 242/2/4
f 243/2/4 244/2/4 247/2/4
f 247/2/4 244/2/4 248/2/4
f 245/2/4 246/2/4 249/2/4
f 249/2/4 246/2/4 250/2/4
f 251/2/4 252/2/4 253/2/4
f 253/2/4 252/2/4 254/2/4
f 255/2/4 256/2/4 257/2/4
f 257/2/4 256/2/4 258/2/4
f 259/2/4 260/2/4 261/2/4
f 261/2/4 260/2/4 262/2/4
f 263/2/4 264/2/4 265/2/4
f 265/2/4 264/2/4 266/2/4
f 267/2/4 268/2/4 269/2/4
f 267/2/4 269/2/4 271/2/4
f 269/2/4 270/2/4 271/2/4
f 271/2/4 270/2/4 272/2/4
f 277/2/5 274/2/5 273/2/5
f 278/2/5 276/2/5 275/2/5
f 279/2/5 277/2/5 273/2/5
f 279/3/5 278/3/5 277/3/5
f 280/2/5 276/2/5 278/2/5
f 280/3/5 278/3/5 279/3/5
f 281/2/5 279/2/5 273/2/5
f 281/2/5 280/2/5 279/2/5
f 282/2/5 276/2/5 280/2/5
f 282/2/5 280/2/5 281/2/5
f 285/4/5 284/4/5 283/4/5
f 286/4/5 284/4/5 285/4/5
f 289/2/5 288/2/5 287/2/5
f 290/2/5 288/2/5 289/2/5
f 295/2/5 292/2/5 291/2/5
f 296/2/5 292/2/5 295/2/5
f 297/2/5 294/2/5 293/2/5
f 298/2/5 294/2/5 297/2/5
f 303/2/5 300/2/5 299/2/5
f 304/2/5 300/2/5 303/2/5
f 305/2/5 302/2/5 301/2/5
f 306/2/5 302/2/5 305/2/5
f 309/2/5 308/2/5 307/2/5
f 310/2/5 308/2/5 309/2/5
f 313/2/5 312/2/5 311/2/5
f 314/2/5 312/2/5 313/2/5
f 319/2/5 316/2/5 315/2/5
f 320/2/5 316/2/5 319/2/5
f 321/2/5 318/2/5 317/2/5
f 322/2/5 318/2/5 321/2/5
f 327/2/5 324/2/5 323/2/5
f 328/2/5 324/2/5 327/2/5
f 329/2/5 326/2/5 325/2/5
f 330/2/5 326/2/5 329/2/5
f 335/2/5 332/2/5 331/2/5
f 336/2/5 332/2/5 335/2/5
f 337/2/5 334/2/5 333/2/5
f 338/2/5 334/2/5 337/2/5
f 339/4/6 340/4/6 341/4/6
f 341/4/6 340/4/6 342/4/6
f 343/2/6 344/2/6 347/2/6
f 347/2/6 344/2/6 348/2/6
f 345/2/6 346/2/6 349/2/6
f 349/2/6 346/2/6 350/2/6
f 351/2/6 352/2/6 355/2/6
f 355/2/6 352/2/6 356/2/6
f 353/2/6 354/2/6 357/2/6
f 357/2/6 354/2/6 358/2/6
f 359/2/6 360/2/6 361/2/6
f 361/2/6 360/2/6 362/2/6
f 363/2/6 364/2/6 365/2/6
f 365/2/6 364/2/6 366/2/6
f 367/2/6 368/2/6 371/2/6
f 371/2/6 368/2/6 372/2/6
f 369/2/6 370/2/6 373/2/6
f 373/2/6 370/2/6 374/2/6
f 375/2/6 376/2/6 379/2/6
f 379/2/6 376/2/6 380/2/6
f 377/2/6 378/2/6 381/2/6
f 381/2/6 378/2/6 382/2/6
f 383/2/6 384/2/6 387/2/6
f 387/2/6 384/2/6 388/2/6
f 385/2/6 386/2/6 389/2/6
f 389/2/6 386/2/6 390/2/6
f 391/2/6 392/2/6 393/2/6
f 393/2/6 392/2/6 394/2/6
f 391/2/6 393/2/6 395/2/6
f 395/2/6 393/2/6 396/2/6
f 397/2/6 398/2/6 399/2/6
f 399/2/6 398/2/6 400/2/6
f 400/2/6 398/2/6 401/2/6
f 401/2/6 398/2/6 402/2/6
f 397/2/6 399/2/6 403/2/6
f 397/2/6 403/2/6 405/2/6
f 403/2/6 404/2/6 405/2/6
f 405/2/6 404/2/6 406/2/6
f 407/2/6 408/2/6 409/2/6
f 409/2/6 408/2/6 410/2/6
