# MagicaVoxel @ Ephtracy

# material
mtllib parkinglot.mtl
usemtl palette

# normals
vn -1 0 0
vn 1 0 0
vn 0 0 1
vn 0 0 -1
vn 0 -1 0
vn 0 1 0

# texcoords
vt 0.0136719 0.5
vt 0.982422 0.5
vt 0.990234 0.5

# verts
v -35 0 35
v -35 0 -35
v -35 2 35
v -35 2 -35
v 35 0 35
v 35 0 -35
v 35 2 35
v 35 2 -35
v -35 0 35
v -35 2 35
v 35 0 35
v 35 2 35
v -35 0 -35
v -35 2 -35
v 35 0 -35
v 35 2 -35
v -35 0 35
v 35 0 35
v -35 0 -35
v 35 0 -35
v -35 2 35
v 35 2 35
v -31 2 30
v -30 2 30
v 30 2 30
v 31 2 30
v -16 2 29
v -15 2 29
v -1 2 29
v 0 2 29
v 15 2 29
v 16 2 29
v -29 2 10
v -17 2 10
v -14 2 10
v -2 2 10
v 2 2 10
v 14 2 10
v 17 2 10
v 29 2 10
v -31 2 9
v -30 2 9
v -29 2 9
v -17 2 9
v -16 2 9
v -15 2 9
v -14 2 9
v -2 2 9
v -1 2 9
v 0 2 9
v 2 2 9
v 14 2 9
v 15 2 9
v 16 2 9
v 17 2 9
v 29 2 9
v 30 2 9
v 31 2 9
v -30 2 -0
v 31 2 -0
v -30 2 -1
v 31 2 -1
v -31 2 -9
v -30 2 -9
v -29 2 -9
v -17 2 -9
v -16 2 -9
v -15 2 -9
v -14 2 -9
v -2 2 -9
v -1 2 -9
v 0 2 -9
v 2 2 -9
v 14 2 -9
v 15 2 -9
v 16 2 -9
v 17 2 -9
v 29 2 -9
v 30 2 -9
v 31 2 -9
v -29 2 -10
v -17 2 -10
v -14 2 -10
v -2 2 -10
v 2 2 -10
v 14 2 -10
v 17 2 -10
v 29 2 -10
v -16 2 -29
v -15 2 -29
v -1 2 -29
v 0 2 -29
v 15 2 -29
v 16 2 -29
v -31 2 -30
v -30 2 -30
v 30 2 -30
v 31 2 -30
v -35 2 -35
v 35 2 -35

# faces
f 3/3/1 2/3/1 1/3/1
f 4/3/1 2/3/1 3/3/1
f 5/3/2 6/3/2 7/3/2
f 7/3/2 6/3/2 8/3/2
f 11/3/3 10/3/3 9/3/3
f 12/3/3 10/3/3 11/3/3
f 13/3/4 14/3/4 15/3/4
f 15/3/4 14/3/4 16/3/4
f 19/3/5 18/3/5 17/3/5
f 20/3/5 18/3/5 19/3/5
f 21/3/6 22/3/6 23/3/6
f 23/3/6 22/3/6 24/3/6
f 24/3/6 22/3/6 25/3/6
f 25/3/6 22/3/6 26/3/6
f 24/3/6 25/3/6 27/3/6
f 27/3/6 25/3/6 28/3/6
f 28/3/6 25/3/6 29/3/6
f 29/3/6 25/3/6 30/3/6
f 30/3/6 25/3/6 31/3/6
f 31/3/6 25/3/6 32/3/6
f 24/3/6 27/3/6 33/3/6
f 33/3/6 27/3/6 34/3/6
f 28/3/6 29/3/6 35/3/6
f 35/3/6 29/3/6 36/3/6
f 30/3/6 31/3/6 37/3/6
f 37/3/6 31/3/6 38/3/6
f 32/3/6 25/3/6 39/3/6
f 39/3/6 25/3/6 40/3/6
f 21/3/6 23/3/6 41/3/6
f 23/2/6 24/2/6 41/2/6
f 24/3/6 33/3/6 42/3/6
f 41/2/6 24/2/6 42/2/6
f 33/1/6 34/1/6 43/1/6
f 42/3/6 33/3/6 43/3/6
f 34/3/6 27/3/6 44/3/6
f 43/1/6 34/1/6 44/1/6
f 27/2/6 28/2/6 45/2/6
f 44/3/6 27/3/6 45/3/6
f 28/3/6 35/3/6 46/3/6
f 45/2/6 28/2/6 46/2/6
f 35/1/6 36/1/6 47/1/6
f 46/3/6 35/3/6 47/3/6
f 36/3/6 29/3/6 48/3/6
f 47/1/6 36/1/6 48/1/6
f 29/2/6 30/2/6 49/2/6
f 48/3/6 29/3/6 49/3/6
f 30/3/6 37/3/6 50/3/6
f 49/2/6 30/2/6 50/2/6
f 37/1/6 38/1/6 51/1/6
f 50/3/6 37/3/6 51/3/6
f 38/3/6 31/3/6 52/3/6
f 51/1/6 38/1/6 52/1/6
f 31/2/6 32/2/6 53/2/6
f 52/3/6 31/3/6 53/3/6
f 32/3/6 39/3/6 54/3/6
f 53/2/6 32/2/6 54/2/6
f 39/1/6 40/1/6 55/1/6
f 54/3/6 39/3/6 55/3/6
f 40/3/6 25/3/6 56/3/6
f 55/1/6 40/1/6 56/1/6
f 25/2/6 26/2/6 57/2/6
f 56/3/6 25/3/6 57/3/6
f 26/3/6 22/3/6 58/3/6
f 57/2/6 26/2/6 58/2/6
f 54/3/6 55/3/6 59/3/6
f 53/3/6 54/3/6 59/3/6
f 57/3/6 58/3/6 59/3/6
f 52/3/6 53/3/6 59/3/6
f 49/3/6 50/3/6 59/3/6
f 48/3/6 49/3/6 59/3/6
f 45/3/6 46/3/6 59/3/6
f 44/3/6 45/3/6 59/3/6
f 41/3/6 42/3/6 59/3/6
f 56/3/6 57/3/6 59/3/6
f 51/3/6 52/3/6 59/3/6
f 46/3/6 47/3/6 59/3/6
f 47/3/6 48/3/6 59/3/6
f 42/3/6 43/3/6 59/3/6
f 43/3/6 44/3/6 59/3/6
f 50/3/6 51/3/6 59/3/6
f 55/3/6 56/3/6 59/3/6
f 58/3/6 22/3/6 60/3/6
f 59/3/6 58/3/6 60/3/6
f 41/3/6 59/3/6 61/3/6
f 59/2/6 60/2/6 61/2/6
f 60/3/6 22/3/6 62/3/6
f 61/2/6 60/2/6 62/2/6
f 41/3/6 61/3/6 63/3/6
f 21/3/6 41/3/6 63/3/6
f 61/3/6 62/3/6 63/3/6
f 63/3/6 62/3/6 64/3/6
f 64/3/6 62/3/6 65/3/6
f 65/3/6 62/3/6 66/3/6
f 66/3/6 62/3/6 67/3/6
f 67/3/6 62/3/6 68/3/6
f 68/3/6 62/3/6 69/3/6
f 69/3/6 62/3/6 70/3/6
f 70/3/6 62/3/6 71/3/6
f 71/3/6 62/3/6 72/3/6
f 72/3/6 62/3/6 73/3/6
f 73/3/6 62/3/6 74/3/6
f 74/3/6 62/3/6 75/3/6
f 75/3/6 62/3/6 76/3/6
f 76/3/6 62/3/6 77/3/6
f 77/3/6 62/3/6 78/3/6
f 78/3/6 62/3/6 79/3/6
f 62/3/6 22/3/6 80/3/6
f 79/3/6 62/3/6 80/3/6
f 64/3/6 65/3/6 81/3/6
f 65/1/6 66/1/6 81/1/6
f 66/3/6 67/3/6 82/3/6
f 81/1/6 66/1/6 82/1/6
f 68/3/6 69/3/6 83/3/6
f 69/1/6 70/1/6 83/1/6
f 70/3/6 71/3/6 84/3/6
f 83/1/6 70/1/6 84/1/6
f 72/3/6 73/3/6 85/3/6
f 73/1/6 74/1/6 85/1/6
f 74/3/6 75/3/6 86/3/6
f 85/1/6 74/1/6 86/1/6
f 76/3/6 77/3/6 87/3/6
f 77/1/6 78/1/6 87/1/6
f 78/3/6 79/3/6 88/3/6
f 87/1/6 78/1/6 88/1/6
f 67/2/6 68/2/6 89/2/6
f 82/3/6 67/3/6 89/3/6
f 81/3/6 82/3/6 89/3/6
f 68/3/6 83/3/6 90/3/6
f 89/2/6 68/2/6 90/2/6
f 83/3/6 84/3/6 90/3/6
f 71/2/6 72/2/6 91/2/6
f 90/3/6 84/3/6 91/3/6
f 84/3/6 71/3/6 91/3/6
f 85/3/6 86/3/6 92/3/6
f 91/2/6 72/2/6 92/2/6
f 72/3/6 85/3/6 92/3/6
f 75/2/6 76/2/6 93/2/6
f 92/3/6 86/3/6 93/3/6
f 86/3/6 75/3/6 93/3/6
f 76/3/6 87/3/6 94/3/6
f 93/2/6 76/2/6 94/2/6
f 87/3/6 88/3/6 94/3/6
f 21/3/6 63/3/6 95/3/6
f 63/2/6 64/2/6 95/2/6
f 92/3/6 93/3/6 96/3/6
f 95/2/6 64/2/6 96/2/6
f 93/3/6 94/3/6 96/3/6
f 89/3/6 90/3/6 96/3/6
f 81/3/6 89/3/6 96/3/6
f 90/3/6 91/3/6 96/3/6
f 91/3/6 92/3/6 96/3/6
f 64/3/6 81/3/6 96/3/6
f 94/3/6 88/3/6 97/3/6
f 96/3/6 94/3/6 97/3/6
f 88/3/6 79/3/6 97/3/6
f 79/2/6 80/2/6 97/2/6
f 80/3/6 22/3/6 98/3/6
f 97/2/6 80/2/6 98/2/6
f 21/3/6 95/3/6 99/3/6
f 95/3/6 96/3/6 99/3/6
f 97/3/6 98/3/6 99/3/6
f 96/3/6 97/3/6 99/3/6
f 98/3/6 22/3/6 100/3/6
f 99/3/6 98/3/6 100/3/6
