# MagicaVoxel @ Ephtracy

# material
mtllib player.mtl
usemtl palette

# normals
vn -1 0 0
vn 1 0 0
vn 0 0 1
vn 0 0 -1
vn 0 -1 0
vn 0 1 0

# texcoords
vt 0.0292969 0.5
vt 0.537109 0.5
vt 0.853516 0.5
vt 0.947266 0.5

# verts
v -2 0 1
v -2 0 -1
v -2 3 1
v -2 3 -1
v -2 6 1
v -2 6 -1
v -1 6 1
v -1 6 -0
v -1 6 -1
v -1 7 -0
v -1 7 -1
v -1 8 1
v -1 8 -1
v 1 6 1
v 1 6 -0
v 1 6 -1
v 1 7 -0
v 1 7 -1
v 1 8 1
v 1 8 -1
v 2 0 1
v 2 0 -1
v 2 3 1
v 2 3 -1
v 2 6 1
v 2 6 -1
v -2 0 1
v -2 3 1
v -2 6 1
v -1 6 1
v -1 8 1
v 1 6 1
v 1 8 1
v 2 0 1
v 2 3 1
v 2 6 1
v -2 0 -1
v -2 3 -1
v -2 6 -1
v -1 6 -1
v -1 7 -1
v -1 8 -1
v 1 6 -1
v 1 7 -1
v 1 8 -1
v 2 0 -1
v 2 3 -1
v 2 6 -1
v -2 0 1
v 2 0 1
v -2 0 -1
v 2 0 -1
v -2 6 1
v -1 6 1
v 1 6 1
v 2 6 1
v -1 6 -0
v 1 6 -0
v -2 6 -1
v -1 6 -1
v 1 6 -1
v 2 6 -1
v -1 8 1
v 1 8 1
v -1 8 -1
v 1 8 -1

# faces
f 3/4/1 2/4/1 1/4/1
f 4/4/1 2/4/1 3/4/1
f 5/3/1 4/3/1 3/3/1
f 6/3/1 4/3/1 5/3/1
f 10/2/1 8/2/1 7/2/1
f 10/1/1 9/1/1 8/1/1
f 11/1/1 9/1/1 10/1/1
f 12/2/1 10/2/1 7/2/1
f 12/2/1 11/2/1 10/2/1
f 13/2/1 11/2/1 12/2/1
f 14/2/2 15/2/2 17/2/2
f 15/1/2 16/1/2 17/1/2
f 17/1/2 16/1/2 18/1/2
f 14/2/2 17/2/2 19/2/2
f 17/2/2 18/2/2 19/2/2
f 19/2/2 18/2/2 20/2/2
f 21/4/2 22/4/2 23/4/2
f 23/4/2 22/4/2 24/4/2
f 23/3/2 24/3/2 25/3/2
f 25/3/2 24/3/2 26/3/2
f 30/3/3 29/3/3 28/3/3
f 32/3/3 30/3/3 28/3/3
f 32/2/3 31/2/3 30/2/3
f 33/2/3 31/2/3 32/2/3
f 34/4/3 28/4/3 27/4/3
f 35/3/3 32/3/3 28/3/3
f 35/4/3 28/4/3 34/4/3
f 36/3/3 32/3/3 35/3/3
f 38/3/4 39/3/4 40/3/4
f 38/3/4 40/3/4 43/3/4
f 40/1/4 41/1/4 43/1/4
f 41/2/4 42/2/4 44/2/4
f 43/1/4 41/1/4 44/1/4
f 44/2/4 42/2/4 45/2/4
f 37/4/4 38/4/4 46/4/4
f 38/3/4 43/3/4 47/3/4
f 46/4/4 38/4/4 47/4/4
f 47/3/4 43/3/4 48/3/4
f 51/4/5 50/4/5 49/4/5
f 52/4/5 50/4/5 51/4/5
f 53/3/6 54/3/6 57/3/6
f 55/3/6 56/3/6 58/3/6
f 53/3/6 57/3/6 59/3/6
f 59/3/6 57/3/6 60/3/6
f 58/3/6 56/3/6 61/3/6
f 61/3/6 56/3/6 62/3/6
f 63/2/6 64/2/6 65/2/6
f 65/2/6 64/2/6 66/2/6
