# MagicaVoxel @ Ephtracy

# material
mtllib taxi.mtl
usemtl palette

# normals
vn -1 0 0
vn 1 0 0
vn 0 0 1
vn 0 0 -1
vn 0 -1 0
vn 0 1 0

# texcoords
vt 0.00976563 0.5
vt 0.0214844 0.5
vt 0.751953 0.5
vt 0.962891 0.5
vt 0.994141 0.5

# verts
v -6 5 -3
v -6 5 -4
v -6 6 -3
v -6 6 -4
v -5 0 8
v -5 0 5
v -5 0 -5
v -5 0 -8
v -5 1 9
v -5 1 8
v -5 1 5
v -5 1 -5
v -5 1 -8
v -5 1 -9
v -5 2 10
v -5 2 9
v -5 2 8
v -5 2 5
v -5 2 -5
v -5 2 -8
v -5 2 -9
v -5 2 -10
v -5 3 11
v -5 3 10
v -5 4 11
v -5 4 10
v -5 4 -9
v -5 4 -10
v -5 5 10
v -5 5 7
v -5 5 4
v -5 5 -2
v -5 5 -3
v -5 5 -4
v -5 5 -9
v -5 6 7
v -5 6 6
v -5 6 -3
v -5 6 -4
v -5 8 6
v -5 8 5
v -5 8 4
v -5 8 -2
v -5 8 -3
v -5 8 -4
v -5 9 5
v -5 9 -3
v -4 1 10
v -4 1 9
v -4 1 -9
v -4 1 -10
v -4 2 12
v -4 2 10
v -4 2 9
v -4 2 -9
v -4 2 -10
v -4 3 12
v -4 3 11
v -4 3 10
v -4 4 -9
v -4 4 -10
v -4 5 4
v -4 5 -2
v -4 5 -4
v -4 5 -6
v -4 5 -9
v -4 5 -10
v -4 6 -5
v -4 6 -6
v -4 7 -4
v -4 7 -5
v -4 8 4
v -4 8 -2
v -4 8 -3
v -4 8 -4
v -4 9 -3
v -4 9 -4
v -2 9 -1
v -2 9 -2
v -2 10 -1
v -2 10 -2
v 3 0 8
v 3 0 5
v 3 0 -5
v 3 0 -8
v 3 1 8
v 3 1 5
v 3 1 -5
v 3 1 -8
v -3 0 8
v -3 0 5
v -3 0 -5
v -3 0 -8
v -3 1 8
v -3 1 5
v -3 1 -5
v -3 1 -8
v -3 2 12
v -3 2 10
v -3 3 12
v -3 3 11
v -3 3 10
v 2 9 -1
v 2 9 -2
v 2 10 -1
v 2 10 -2
v 4 1 10
v 4 1 9
v 4 1 -9
v 4 1 -10
v 4 2 10
v 4 2 9
v 4 2 -9
v 4 2 -10
v 4 4 -9
v 4 4 -10
v 4 5 4
v 4 5 -2
v 4 5 -4
v 4 5 -6
v 4 5 -9
v 4 5 -10
v 4 6 -5
v 4 6 -6
v 4 7 -4
v 4 7 -5
v 4 8 4
v 4 8 -2
v 4 8 -3
v 4 8 -4
v 4 9 -3
v 4 9 -4
v 5 0 8
v 5 0 5
v 5 0 -5
v 5 0 -8
v 5 1 9
v 5 1 8
v 5 1 5
v 5 1 -5
v 5 1 -8
v 5 1 -9
v 5 2 10
v 5 2 9
v 5 2 8
v 5 2 5
v 5 2 -5
v 5 2 -8
v 5 2 -9
v 5 2 -10
v 5 3 11
v 5 3 10
v 5 4 11
v 5 4 10
v 5 4 -9
v 5 4 -10
v 5 5 10
v 5 5 7
v 5 5 4
v 5 5 -2
v 5 5 -3
v 5 5 -4
v 5 5 -9
v 5 6 7
v 5 6 6
v 5 6 -3
v 5 6 -4
v 5 8 6
v 5 8 5
v 5 8 4
v 5 8 -2
v 5 8 -3
v 5 8 -4
v 5 9 5
v 5 9 -3
v 6 5 -3
v 6 5 -4
v 6 6 -3
v 6 6 -4
v -4 2 12
v -4 3 12
v -3 2 12
v -3 3 12
v -5 3 11
v -5 4 11
v -4 3 11
v -3 3 11
v 5 3 11
v 5 4 11
v -5 2 10
v -5 3 10
v -5 4 10
v -5 5 10
v -4 1 10
v -4 2 10
v -4 3 10
v -3 2 10
v -3 3 10
v 4 1 10
v 4 2 10
v 5 2 10
v 5 3 10
v 5 4 10
v 5 5 10
v -5 1 9
v -5 2 9
v -4 1 9
v -4 2 9
v 4 1 9
v 4 2 9
v 5 1 9
v 5 2 9
v -5 0 8
v -5 1 8
v -3 0 8
v -3 1 8
v 3 0 8
v 3 1 8
v 5 0 8
v 5 1 8
v -5 5 7
v -5 6 7
v 5 5 7
v 5 6 7
v -5 6 6
v -5 8 6
v 5 6 6
v 5 8 6
v -5 8 5
v -5 9 5
v 5 8 5
v 5 9 5
v -2 9 -1
v -2 10 -1
v -1 9 -1
v -1 10 -1
v 1 9 -1
v 1 10 -1
v 2 9 -1
v 2 10 -1
v -5 5 -2
v -5 8 -2
v -4 5 -2
v -4 8 -2
v 4 5 -2
v 4 8 -2
v 5 5 -2
v 5 8 -2
v -6 5 -3
v -6 6 -3
v -5 5 -3
v -5 6 -3
v 5 5 -3
v 5 6 -3
v 6 5 -3
v 6 6 -3
v -5 0 -5
v -5 1 -5
v -3 0 -5
v -3 1 -5
v 3 0 -5
v 3 1 -5
v 5 0 -5
v 5 1 -5
v -5 0 5
v -5 1 5
v -3 0 5
v -3 1 5
v 3 0 5
v 3 1 5
v 5 0 5
v 5 1 5
v -5 5 4
v -5 8 4
v -4 5 4
v -4 8 4
v 4 5 4
v 4 8 4
v 5 5 4
v 5 8 4
v -2 9 -2
v -2 10 -2
v -1 9 -2
v -1 10 -2
v 1 9 -2
v 1 10 -2
v 2 9 -2
v 2 10 -2
v -5 8 -3
v -5 9 -3
v -4 8 -3
v -4 9 -3
v 4 8 -3
v 4 9 -3
v 5 8 -3
v 5 9 -3
v -6 5 -4
v -6 6 -4
v -5 5 -4
v -5 6 -4
v -5 8 -4
v -4 5 -4
v -4 7 -4
v -4 8 -4
v -4 9 -4
v 4 5 -4
v 4 7 -4
v 4 8 -4
v 4 9 -4
v 5 5 -4
v 5 6 -4
v 5 8 -4
v 6 5 -4
v 6 6 -4
v -4 6 -5
v -4 7 -5
v 4 6 -5
v 4 7 -5
v -4 5 -6
v -4 6 -6
v 4 5 -6
v 4 6 -6
v -5 0 -8
v -5 1 -8
v -3 0 -8
v -3 1 -8
v 3 0 -8
v 3 1 -8
v 5 0 -8
v 5 1 -8
v -5 1 -9
v -5 2 -9
v -5 4 -9
v -5 5 -9
v -4 1 -9
v -4 2 -9
v -4 4 -9
v -4 5 -9
v 4 1 -9
v 4 2 -9
v 4 4 -9
v 4 5 -9
v 5 1 -9
v 5 2 -9
v 5 4 -9
v 5 5 -9
v -5 2 -10
v -5 4 -10
v -4 1 -10
v -4 2 -10
v -4 3 -10
v -4 4 -10
v -4 5 -10
v -3 2 -10
v -3 3 -10
v 3 2 -10
v 3 3 -10
v 4 1 -10
v 4 2 -10
v 4 3 -10
v 4 4 -10
v 4 5 -10
v 5 2 -10
v 5 4 -10
v -5 0 8
v -3 0 8
v 3 0 8
v 5 0 8
v -5 0 5
v -3 0 5
v 3 0 5
v 5 0 5
v -5 0 -5
v -3 0 -5
v 3 0 -5
v 5 0 -5
v -5 0 -8
v -3 0 -8
v 3 0 -8
v 5 0 -8
v -4 1 10
v 4 1 10
v -5 1 9
v -4 1 9
v 4 1 9
v 5 1 9
v -5 1 8
v -3 1 8
v 3 1 8
v 5 1 8
v -5 1 5
v -3 1 5
v 3 1 5
v 5 1 5
v -5 1 -5
v -3 1 -5
v 3 1 -5
v 5 1 -5
v -5 1 -8
v -3 1 -8
v 3 1 -8
v 5 1 -8
v -5 1 -9
v -4 1 -9
v 4 1 -9
v 5 1 -9
v -4 1 -10
v 4 1 -10
v -4 2 12
v -3 2 12
v -5 2 10
v -4 2 10
v -3 2 10
v 4 2 10
v 5 2 10
v -5 2 9
v -4 2 9
v 4 2 9
v 5 2 9
v -5 2 -9
v -4 2 -9
v 4 2 -9
v 5 2 -9
v -5 2 -10
v -4 2 -10
v 4 2 -10
v 5 2 -10
v -5 3 11
v -4 3 11
v -3 3 11
v 5 3 11
v -5 3 10
v -4 3 10
v -3 3 10
v 5 3 10
v -6 5 -3
v -5 5 -3
v 5 5 -3
v 6 5 -3
v -6 5 -4
v -5 5 -4
v 5 5 -4
v 6 5 -4
v -5 8 4
v -4 8 4
v 4 8 4
v 5 8 4
v -5 8 -2
v -4 8 -2
v 4 8 -2
v 5 8 -2
v -4 3 12
v -3 3 12
v -4 3 11
v -3 3 11
v -5 4 11
v 5 4 11
v -5 4 10
v 5 4 10
v -5 4 -9
v -4 4 -9
v 4 4 -9
v 5 4 -9
v -5 4 -10
v -4 4 -10
v 4 4 -10
v 5 4 -10
v -5 5 10
v 5 5 10
v -5 5 7
v 5 5 7
v -5 5 4
v -4 5 4
v 4 5 4
v 5 5 4
v -5 5 -2
v -4 5 -2
v 4 5 -2
v 5 5 -2
v -5 5 -4
v -4 5 -4
v 4 5 -4
v 5 5 -4
v -4 5 -6
v 4 5 -6
v -5 5 -9
v -4 5 -9
v 4 5 -9
v 5 5 -9
v -4 5 -10
v 4 5 -10
v -5 6 7
v 5 6 7
v -5 6 6
v 5 6 6
v -6 6 -3
v -5 6 -3
v 5 6 -3
v 6 6 -3
v -6 6 -4
v -5 6 -4
v 5 6 -4
v 6 6 -4
v -4 6 -5
v 4 6 -5
v -4 6 -6
v 4 6 -6
v -4 7 -4
v 4 7 -4
v -4 7 -5
v 4 7 -5
v -5 8 6
v 5 8 6
v -5 8 5
v 5 8 5
v -5 8 -3
v -4 8 -3
v 4 8 -3
v 5 8 -3
v -5 8 -4
v -4 8 -4
v 4 8 -4
v 5 8 -4
v -5 9 5
v 5 9 5
v -2 9 -1
v -1 9 -1
v 1 9 -1
v 2 9 -1
v -2 9 -2
v -1 9 -2
v 1 9 -2
v 2 9 -2
v -5 9 -3
v -4 9 -3
v 4 9 -3
v 5 9 -3
v -4 9 -4
v 4 9 -4
v -2 10 -1
v -1 10 -1
v 1 10 -1
v 2 10 -1
v -2 10 -2
v -1 10 -2
v 1 10 -2
v 2 10 -2

# faces
f 3/2/1 2/2/1 1/2/1
f 4/2/1 2/2/1 3/2/1
f 10/5/1 6/5/1 5/5/1
f 11/5/1 6/5/1 10/5/1
f 12/5/1 8/5/1 7/5/1
f 13/5/1 8/5/1 12/5/1
f 16/2/1 10/2/1 9/2/1
f 17/5/1 11/5/1 10/5/1
f 17/2/1 10/2/1 16/2/1
f 18/2/1 12/2/1 11/2/1
f 18/5/1 11/5/1 17/5/1
f 19/5/1 13/5/1 12/5/1
f 19/2/1 12/2/1 18/2/1
f 20/2/1 14/2/1 13/2/1
f 20/5/1 13/5/1 19/5/1
f 21/2/1 14/2/1 20/2/1
f 24/2/1 16/2/1 15/2/1
f 24/2/1 22/2/1 21/2/1
f 24/2/1 21/2/1 20/2/1
f 24/2/1 20/2/1 19/2/1
f 24/2/1 19/2/1 18/2/1
f 24/2/1 18/2/1 17/2/1
f 24/2/1 17/2/1 16/2/1
f 25/2/1 24/2/1 23/2/1
f 26/2/1 22/2/1 24/2/1
f 26/2/1 24/2/1 25/2/1
f 27/2/1 22/2/1 26/2/1
f 28/2/1 22/2/1 27/2/1
f 29/2/1 27/2/1 26/2/1
f 30/2/1 27/2/1 29/2/1
f 31/2/1 27/2/1 30/2/1
f 32/2/1 27/2/1 31/2/1
f 33/2/1 27/2/1 32/2/1
f 34/2/1 27/2/1 33/2/1
f 35/2/1 27/2/1 34/2/1
f 36/2/1 31/2/1 30/2/1
f 37/2/1 31/2/1 36/2/1
f 38/2/1 33/2/1 32/2/1
f 40/2/1 31/2/1 37/2/1
f 41/2/1 31/2/1 40/2/1
f 42/2/1 31/2/1 41/2/1
f 43/2/1 39/2/1 38/2/1
f 43/2/1 38/2/1 32/2/1
f 44/2/1 39/2/1 43/2/1
f 45/2/1 39/2/1 44/2/1
f 46/2/1 42/2/1 41/2/1
f 46/2/1 44/2/1 43/2/1
f 46/2/1 43/2/1 42/2/1
f 47/2/1 44/2/1 46/2/1
f 53/2/1 49/2/1 48/2/1
f 54/2/1 49/2/1 53/2/1
f 55/2/1 51/2/1 50/2/1
f 56/2/1 51/2/1 55/2/1
f 57/5/1 53/5/1 52/5/1
f 58/5/1 53/5/1 57/5/1
f 59/5/1 53/5/1 58/5/1
f 66/2/1 61/2/1 60/2/1
f 67/2/1 61/2/1 66/2/1
f 68/4/1 65/4/1 64/4/1
f 69/4/1 65/4/1 68/4/1
f 70/4/1 68/4/1 64/4/1
f 71/4/1 68/4/1 70/4/1
f 72/4/1 63/4/1 62/4/1
f 73/4/1 63/4/1 72/4/1
f 76/2/1 75/2/1 74/2/1
f 77/2/1 75/2/1 76/2/1
f 80/5/1 79/5/1 78/5/1
f 81/5/1 79/5/1 80/5/1
f 86/5/1 83/5/1 82/5/1
f 87/5/1 83/5/1 86/5/1
f 88/5/1 85/5/1 84/5/1
f 89/5/1 85/5/1 88/5/1
f 90/5/2 91/5/2 94/5/2
f 94/5/2 91/5/2 95/5/2
f 92/5/2 93/5/2 96/5/2
f 96/5/2 93/5/2 97/5/2
f 98/5/2 99/5/2 100/5/2
f 100/5/2 99/5/2 101/5/2
f 101/5/2 99/5/2 102/5/2
f 103/5/2 104/5/2 105/5/2
f 105/5/2 104/5/2 106/5/2
f 107/2/2 108/2/2 111/2/2
f 111/2/2 108/2/2 112/2/2
f 109/2/2 110/2/2 113/2/2
f 113/2/2 110/2/2 114/2/2
f 115/2/2 116/2/2 121/2/2
f 121/2/2 116/2/2 122/2/2
f 119/4/2 120/4/2 123/4/2
f 123/4/2 120/4/2 124/4/2
f 119/4/2 123/4/2 125/4/2
f 125/4/2 123/4/2 126/4/2
f 117/4/2 118/4/2 127/4/2
f 127/4/2 118/4/2 128/4/2
f 129/2/2 130/2/2 131/2/2
f 131/2/2 130/2/2 132/2/2
f 133/5/2 134/5/2 138/5/2
f 138/5/2 134/5/2 139/5/2
f 135/5/2 136/5/2 140/5/2
f 140/5/2 136/5/2 141/5/2
f 137/2/2 138/2/2 144/2/2
f 138/5/2 139/5/2 145/5/2
f 144/2/2 138/2/2 145/2/2
f 139/2/2 140/2/2 146/2/2
f 145/5/2 139/5/2 146/5/2
f 140/5/2 141/5/2 147/5/2
f 146/2/2 140/2/2 147/2/2
f 141/2/2 142/2/2 148/2/2
f 147/5/2 141/5/2 148/5/2
f 148/2/2 142/2/2 149/2/2
f 143/2/2 144/2/2 152/2/2
f 149/2/2 150/2/2 152/2/2
f 148/2/2 149/2/2 152/2/2
f 147/2/2 148/2/2 152/2/2
f 146/2/2 147/2/2 152/2/2
f 145/2/2 146/2/2 152/2/2
f 144/2/2 145/2/2 152/2/2
f 151/2/2 152/2/2 153/2/2
f 152/2/2 150/2/2 154/2/2
f 153/2/2 152/2/2 154/2/2
f 154/2/2 150/2/2 155/2/2
f 155/2/2 150/2/2 156/2/2
f 154/2/2 155/2/2 157/2/2
f 157/2/2 155/2/2 158/2/2
f 158/2/2 155/2/2 159/2/2
f 159/2/2 155/2/2 160/2/2
f 160/2/2 155/2/2 161/2/2
f 161/2/2 155/2/2 162/2/2
f 162/2/2 155/2/2 163/2/2
f 158/2/2 159/2/2 164/2/2
f 164/2/2 159/2/2 165/2/2
f 160/2/2 161/2/2 166/2/2
f 165/2/2 159/2/2 168/2/2
f 168/2/2 159/2/2 169/2/2
f 169/2/2 159/2/2 170/2/2
f 166/2/2 167/2/2 171/2/2
f 160/2/2 166/2/2 171/2/2
f 171/2/2 167/2/2 172/2/2
f 172/2/2 167/2/2 173/2/2
f 169/2/2 170/2/2 174/2/2
f 171/2/2 172/2/2 174/2/2
f 170/2/2 171/2/2 174/2/2
f 174/2/2 172/2/2 175/2/2
f 176/2/2 177/2/2 178/2/2
f 178/2/2 177/2/2 179/2/2
f 182/5/3 181/5/3 180/5/3
f 183/5/3 181/5/3 182/5/3
f 186/2/3 185/2/3 184/2/3
f 187/2/3 185/2/3 186/2/3
f 188/2/3 185/2/3 187/2/3
f 189/2/3 185/2/3 188/2/3
f 195/2/3 191/2/3 190/2/3
f 196/2/3 191/2/3 195/2/3
f 197/2/3 195/2/3 194/2/3
f 199/2/3 197/2/3 194/2/3
f 199/2/3 198/2/3 197/2/3
f 200/2/3 198/2/3 199/2/3
f 201/2/3 198/2/3 200/2/3
f 202/2/3 198/2/3 201/2/3
f 203/2/3 193/2/3 192/2/3
f 204/2/3 193/2/3 203/2/3
f 207/2/3 206/2/3 205/2/3
f 208/2/3 206/2/3 207/2/3
f 211/2/3 210/2/3 209/2/3
f 212/2/3 210/2/3 211/2/3
f 215/5/3 214/5/3 213/5/3
f 216/5/3 214/5/3 215/5/3
f 219/5/3 218/5/3 217/5/3
f 220/5/3 218/5/3 219/5/3
f 223/2/3 222/2/3 221/2/3
f 224/2/3 222/2/3 223/2/3
f 227/2/3 226/2/3 225/2/3
f 228/2/3 226/2/3 227/2/3
f 231/2/3 230/2/3 229/2/3
f 232/2/3 230/2/3 231/2/3
f 235/5/3 234/5/3 233/5/3
f 236/5/3 234/5/3 235/5/3
f 237/2/3 236/2/3 235/2/3
f 238/2/3 236/2/3 237/2/3
f 239/5/3 238/5/3 237/5/3
f 240/5/3 238/5/3 239/5/3
f 243/2/3 242/2/3 241/2/3
f 244/2/3 242/2/3 243/2/3
f 247/2/3 246/2/3 245/2/3
f 248/2/3 246/2/3 247/2/3
f 251/2/3 250/2/3 249/2/3
f 252/2/3 250/2/3 251/2/3
f 255/2/3 254/2/3 253/2/3
f 256/2/3 254/2/3 255/2/3
f 259/5/3 258/5/3 257/5/3
f 260/5/3 258/5/3 259/5/3
f 263/5/3 262/5/3 261/5/3
f 264/5/3 262/5/3 263/5/3
f 265/5/4 266/5/4 267/5/4
f 267/5/4 266/5/4 268/5/4
f 269/5/4 270/5/4 271/5/4
f 271/5/4 270/5/4 272/5/4
f 273/2/4 274/2/4 275/2/4
f 275/2/4 274/2/4 276/2/4
f 277/2/4 278/2/4 279/2/4
f 279/2/4 278/2/4 280/2/4
f 281/5/4 282/5/4 283/5/4
f 283/5/4 282/5/4 284/5/4
f 283/2/4 284/2/4 285/2/4
f 285/2/4 284/2/4 286/2/4
f 285/5/4 286/5/4 287/5/4
f 287/5/4 286/5/4 288/5/4
f 289/2/4 290/2/4 291/2/4
f 291/2/4 290/2/4 292/2/4
f 293/2/4 294/2/4 295/2/4
f 295/2/4 294/2/4 296/2/4
f 297/2/4 298/2/4 299/2/4
f 299/2/4 298/2/4 300/2/4
f 299/2/4 300/2/4 302/2/4
f 300/2/4 301/2/4 302/2/4
f 302/2/4 301/2/4 303/2/4
f 303/2/4 301/2/4 304/2/4
f 303/4/4 304/4/4 307/4/4
f 304/2/4 305/2/4 308/2/4
f 307/4/4 304/4/4 308/4/4
f 308/2/4 305/2/4 309/2/4
f 306/2/4 307/2/4 310/2/4
f 307/2/4 308/2/4 310/2/4
f 310/2/4 308/2/4 311/2/4
f 311/2/4 308/2/4 312/2/4
f 310/2/4 311/2/4 313/2/4
f 313/2/4 311/2/4 314/2/4
f 315/4/4 316/4/4 317/4/4
f 317/4/4 316/4/4 318/4/4
f 319/4/4 320/4/4 321/4/4
f 321/4/4 320/4/4 322/4/4
f 323/5/4 324/5/4 325/5/4
f 325/5/4 324/5/4 326/5/4
f 327/5/4 328/5/4 329/5/4
f 329/5/4 328/5/4 330/5/4
f 331/2/4 332/2/4 335/2/4
f 335/2/4 332/2/4 336/2/4
f 333/2/4 334/2/4 337/2/4
f 337/2/4 334/2/4 338/2/4
f 339/2/4 340/2/4 343/2/4
f 343/2/4 340/2/4 344/2/4
f 341/2/4 342/2/4 345/2/4
f 345/2/4 342/2/4 346/2/4
f 347/2/4 348/2/4 350/2/4
f 350/2/4 348/2/4 351/2/4
f 351/2/4 348/2/4 352/2/4
f 349/2/4 350/2/4 354/2/4
f 350/1/4 351/1/4 354/1/4
f 352/2/4 353/2/4 355/2/4
f 354/1/4 351/1/4 355/1/4
f 351/2/4 352/2/4 355/2/4
f 349/2/4 354/2/4 356/2/4
f 354/2/4 355/2/4 356/2/4
f 355/2/4 353/2/4 357/2/4
f 356/2/4 355/2/4 357/2/4
f 349/2/4 356/2/4 358/2/4
f 356/1/4 357/1/4 359/1/4
f 358/2/4 356/2/4 359/2/4
f 357/2/4 353/2/4 360/2/4
f 359/1/4 357/1/4 360/1/4
f 360/2/4 353/2/4 361/2/4
f 361/2/4 353/2/4 362/2/4
f 359/2/4 360/2/4 363/2/4
f 360/2/4 361/2/4 363/2/4
f 363/2/4 361/2/4 364/2/4
f 369/5/5 366/5/5 365/5/5
f 370/5/5 366/5/5 369/5/5
f 371/5/5 368/5/5 367/5/5
f 372/5/5 368/5/5 371/5/5
f 377/5/5 374/5/5 373/5/5
f 378/5/5 374/5/5 377/5/5
f 379/5/5 376/5/5 375/5/5
f 380/5/5 376/5/5 379/5/5
f 384/2/5 382/2/5 381/2/5
f 385/2/5 382/2/5 384/2/5
f 387/2/5 384/2/5 383/2/5
f 387/2/5 386/2/5 385/2/5
f 387/2/5 385/2/5 384/2/5
f 388/2/5 386/2/5 387/2/5
f 389/2/5 386/2/5 388/2/5
f 390/2/5 386/2/5 389/2/5
f 392/2/5 389/2/5 388/2/5
f 393/2/5 389/2/5 392/2/5
f 395/2/5 392/2/5 391/2/5
f 395/2/5 394/2/5 393/2/5
f 395/2/5 393/2/5 392/2/5
f 396/2/5 394/2/5 395/2/5
f 397/2/5 394/2/5 396/2/5
f 398/2/5 394/2/5 397/2/5
f 400/2/5 397/2/5 396/2/5
f 401/2/5 397/2/5 400/2/5
f 403/2/5 400/2/5 399/2/5
f 403/2/5 402/2/5 401/2/5
f 403/2/5 401/2/5 400/2/5
f 404/2/5 402/2/5 403/2/5
f 405/2/5 402/2/5 404/2/5
f 406/2/5 402/2/5 405/2/5
f 407/2/5 405/2/5 404/2/5
f 408/2/5 405/2/5 407/2/5
f 412/5/5 410/5/5 409/5/5
f 413/5/5 410/5/5 412/5/5
f 416/2/5 412/2/5 411/2/5
f 417/2/5 412/2/5 416/2/5
f 418/2/5 415/2/5 414/2/5
f 419/2/5 415/2/5 418/2/5
f 424/2/5 421/2/5 420/2/5
f 425/2/5 421/2/5 424/2/5
f 426/2/5 423/2/5 422/2/5
f 427/2/5 423/2/5 426/2/5
f 432/2/5 429/2/5 428/2/5
f 433/2/5 429/2/5 432/2/5
f 434/2/5 431/2/5 430/2/5
f 435/2/5 431/2/5 434/2/5
f 440/2/5 437/2/5 436/2/5
f 441/2/5 437/2/5 440/2/5
f 442/2/5 439/2/5 438/2/5
f 443/2/5 439/2/5 442/2/5
f 448/2/5 445/2/5 444/2/5
f 449/2/5 445/2/5 448/2/5
f 450/2/5 447/2/5 446/2/5
f 451/2/5 447/2/5 450/2/5
f 452/5/6 453/5/6 454/5/6
f 454/5/6 453/5/6 455/5/6
f 456/2/6 457/2/6 458/2/6
f 458/2/6 457/2/6 459/2/6
f 460/2/6 461/2/6 464/2/6
f 464/2/6 461/2/6 465/2/6
f 462/2/6 463/2/6 466/2/6
f 466/2/6 463/2/6 467/2/6
f 468/2/6 469/2/6 470/2/6
f 470/2/6 469/2/6 471/2/6
f 472/2/6 473/2/6 476/2/6
f 476/2/6 473/2/6 477/2/6
f 474/2/6 475/2/6 478/2/6
f 478/2/6 475/2/6 479/2/6
f 480/2/6 481/2/6 484/2/6
f 482/2/6 483/2/6 485/2/6
f 480/2/6 484/2/6 486/2/6
f 484/2/6 485/2/6 486/2/6
f 486/2/6 485/2/6 487/2/6
f 485/2/6 483/2/6 488/2/6
f 487/2/6 485/2/6 488/2/6
f 488/2/6 483/2/6 489/2/6
f 487/2/6 488/2/6 490/2/6
f 490/2/6 488/2/6 491/2/6
f 492/2/6 493/2/6 494/2/6
f 494/2/6 493/2/6 495/2/6
f 496/2/6 497/2/6 500/2/6
f 500/2/6 497/2/6 501/2/6
f 498/2/6 499/2/6 502/2/6
f 502/2/6 499/2/6 503/2/6
f 504/4/6 505/4/6 506/4/6
f 506/4/6 505/4/6 507/4/6
f 508/4/6 509/4/6 510/4/6
f 510/4/6 509/4/6 511/4/6
f 512/2/6 513/2/6 514/2/6
f 514/2/6 513/2/6 515/2/6
f 516/2/6 517/2/6 520/2/6
f 520/2/6 517/2/6 521/2/6
f 518/2/6 519/2/6 522/2/6
f 522/2/6 519/2/6 523/2/6
f 524/2/6 525/2/6 526/2/6
f 526/2/6 525/2/6 527/2/6
f 527/2/6 525/2/6 528/2/6
f 528/2/6 525/2/6 529/2/6
f 524/2/6 526/2/6 530/2/6
f 529/2/6 525/2/6 533/2/6
f 531/2/6 532/2/6 534/2/6
f 532/2/6 533/2/6 534/2/6
f 524/2/6 530/2/6 534/2/6
f 530/2/6 531/2/6 534/2/6
f 534/2/6 533/2/6 535/2/6
f 533/2/6 525/2/6 536/2/6
f 535/2/6 533/2/6 536/2/6
f 536/2/6 525/2/6 537/2/6
f 535/2/6 536/2/6 538/2/6
f 538/2/6 536/2/6 539/2/6
f 540/5/6 541/5/6 544/5/6
f 541/2/6 542/2/6 545/2/6
f 544/5/6 541/5/6 545/5/6
f 542/5/6 543/5/6 546/5/6
f 545/2/6 542/2/6 546/2/6
f 546/5/6 543/5/6 547/5/6
