# MagicaVoxel @ Ephtracy

# material
mtllib woman-red-2.mtl
usemtl palette

# normals
vn -1 0 0
vn 1 0 0
vn 0 0 1
vn 0 0 -1
vn 0 -1 0
vn 0 1 0

# texcoords
vt 0.0136719 0.5
vt 0.0683594 0.5
vt 0.537109 0.5
vt 0.841797 0.5
vt 0.994141 0.5

# verts
v -2 0 1
v -2 0 -1
v -2 3 1
v -2 3 -1
v -2 4 1
v -2 4 -1
v -2 6 1
v -2 6 -0
v -2 6 -1
v -2 7 1
v -2 7 -0
v -1 6 -0
v -1 6 -1
v -1 7 1
v -1 7 -0
v -1 7 -1
v -1 8 1
v -1 8 -1
v 1 6 -0
v 1 6 -1
v 1 7 1
v 1 7 -0
v 1 7 -1
v 1 8 1
v 1 8 -1
v 2 0 1
v 2 0 -1
v 2 3 1
v 2 3 -1
v 2 4 1
v 2 4 -1
v 2 6 1
v 2 6 -0
v 2 6 -1
v 2 7 1
v 2 7 -0
v -2 0 1
v -2 3 1
v -2 4 1
v -2 6 1
v -2 7 1
v -1 7 1
v -1 8 1
v 1 7 1
v 1 8 1
v 2 0 1
v 2 3 1
v 2 4 1
v 2 6 1
v 2 7 1
v -2 6 -0
v -2 7 -0
v -1 6 -0
v -1 7 -0
v 1 6 -0
v 1 7 -0
v 2 6 -0
v 2 7 -0
v -2 0 -1
v -2 3 -1
v -2 4 -1
v -2 6 -1
v -1 6 -1
v -1 7 -1
v -1 8 -1
v 1 6 -1
v 1 7 -1
v 1 8 -1
v 2 0 -1
v 2 3 -1
v 2 4 -1
v 2 6 -1
v -2 0 1
v 2 0 1
v -2 0 -1
v 2 0 -1
v -2 6 -0
v -1 6 -0
v 1 6 -0
v 2 6 -0
v -2 6 -1
v -1 6 -1
v 1 6 -1
v 2 6 -1
v -2 7 1
v -1 7 1
v 1 7 1
v 2 7 1
v -2 7 -0
v -1 7 -0
v 1 7 -0
v 2 7 -0
v -1 8 1
v 1 8 1
v -1 8 -1
v 1 8 -1

# faces
f 3/1/1 2/1/1 1/1/1
f 4/1/1 2/1/1 3/1/1
f 5/2/1 4/2/1 3/2/1
f 6/2/1 4/2/1 5/2/1
f 7/4/1 6/4/1 5/4/1
f 8/4/1 6/4/1 7/4/1
f 9/4/1 6/4/1 8/4/1
f 10/5/1 8/5/1 7/5/1
f 11/5/1 8/5/1 10/5/1
f 15/3/1 13/3/1 12/3/1
f 16/3/1 13/3/1 15/3/1
f 17/5/1 15/5/1 14/5/1
f 17/5/1 16/5/1 15/5/1
f 18/5/1 16/5/1 17/5/1
f 19/3/2 20/3/2 22/3/2
f 22/3/2 20/3/2 23/3/2
f 21/5/2 22/5/2 24/5/2
f 22/5/2 23/5/2 24/5/2
f 24/5/2 23/5/2 25/5/2
f 26/1/2 27/1/2 28/1/2
f 28/1/2 27/1/2 29/1/2
f 28/2/2 29/2/2 30/2/2
f 30/2/2 29/2/2 31/2/2
f 30/4/2 31/4/2 32/4/2
f 32/4/2 31/4/2 33/4/2
f 33/4/2 31/4/2 34/4/2
f 32/5/2 33/5/2 35/5/2
f 35/5/2 33/5/2 36/5/2
f 42/5/3 41/5/3 40/5/3
f 44/5/3 42/5/3 40/5/3
f 44/5/3 43/5/3 42/5/3
f 45/5/3 43/5/3 44/5/3
f 46/1/3 38/1/3 37/1/3
f 47/2/3 39/2/3 38/2/3
f 47/1/3 38/1/3 46/1/3
f 48/4/3 40/4/3 39/4/3
f 48/2/3 39/2/3 47/2/3
f 49/5/3 44/5/3 40/5/3
f 49/4/3 40/4/3 48/4/3
f 50/5/3 44/5/3 49/5/3
f 51/5/4 52/5/4 53/5/4
f 53/5/4 52/5/4 54/5/4
f 55/5/4 56/5/4 57/5/4
f 57/5/4 56/5/4 58/5/4
f 61/4/4 62/4/4 63/4/4
f 61/4/4 63/4/4 66/4/4
f 63/3/4 64/3/4 66/3/4
f 64/5/4 65/5/4 67/5/4
f 66/3/4 64/3/4 67/3/4
f 67/5/4 65/5/4 68/5/4
f 59/1/4 60/1/4 69/1/4
f 60/2/4 61/2/4 70/2/4
f 69/1/4 60/1/4 70/1/4
f 61/4/4 66/4/4 71/4/4
f 70/2/4 61/2/4 71/2/4
f 71/4/4 66/4/4 72/4/4
f 75/1/5 74/1/5 73/1/5
f 76/1/5 74/1/5 75/1/5
f 77/4/6 78/4/6 81/4/6
f 81/4/6 78/4/6 82/4/6
f 79/4/6 80/4/6 83/4/6
f 83/4/6 80/4/6 84/4/6
f 85/5/6 86/5/6 89/5/6
f 89/5/6 86/5/6 90/5/6
f 87/5/6 88/5/6 91/5/6
f 91/5/6 88/5/6 92/5/6
f 93/5/6 94/5/6 95/5/6
f 95/5/6 94/5/6 96/5/6
