# MagicaVoxel @ Ephtracy

# material
mtllib yol-1-donemec.mtl
usemtl palette

# normals
vn -1 0 0
vn 1 0 0
vn 0 0 1
vn 0 0 -1
vn 0 -1 0
vn 0 1 0

# texcoords
vt 0.974609 0.5
vt 0.986328 0.5

# verts
v -40 0 40
v -40 0 20
v -40 0 -20
v -40 0 -40
v -40 2 20
v -40 2 -20
v -40 4 40
v -40 4 20
v -40 4 -20
v -40 4 -40
v -27 1 39
v -27 1 27
v -27 2 39
v -27 2 27
v -23 1 -23
v -23 1 -39
v -23 2 -23
v -23 2 -39
v 20 2 40
v 20 2 -20
v 20 4 40
v 20 4 -20
v -39 1 39
v -39 1 27
v -39 1 -23
v -39 1 -39
v -39 2 39
v -39 2 27
v -39 2 -23
v -39 2 -39
v -20 2 40
v -20 2 20
v -20 4 40
v -20 4 20
v 40 0 40
v 40 0 -40
v 40 4 40
v 40 4 -40
v -40 0 40
v -40 4 40
v -20 0 40
v -20 2 40
v -20 4 40
v 20 0 40
v 20 2 40
v 20 4 40
v 40 0 40
v 40 4 40
v -39 1 27
v -39 2 27
v -27 1 27
v -27 2 27
v -40 2 -20
v -40 4 -20
v 20 2 -20
v 20 4 -20
v -39 1 -39
v -39 2 -39
v -23 1 -39
v -23 2 -39
v -39 1 39
v -39 2 39
v -27 1 39
v -27 2 39
v -40 2 20
v -40 4 20
v -20 2 20
v -20 4 20
v -39 1 -23
v -39 2 -23
v -23 1 -23
v -23 2 -23
v -40 0 -40
v -40 4 -40
v 40 0 -40
v 40 4 -40
v -40 0 40
v -20 0 40
v 20 0 40
v 40 0 40
v -20 0 39
v 20 0 39
v -40 0 20
v -39 0 20
v 19 0 -19
v 20 0 -19
v -40 0 -20
v -39 0 -20
v 19 0 -39
v 20 0 -39
v -40 0 -40
v 40 0 -40
v -39 2 39
v -27 2 39
v -39 2 27
v -27 2 27
v -39 2 -23
v -23 2 -23
v -39 2 -39
v -23 2 -39
v -39 1 39
v -27 1 39
v -39 1 27
v -27 1 27
v -39 1 -23
v -23 1 -23
v -39 1 -39
v -23 1 -39
v -20 2 40
v 20 2 40
v -40 2 20
v -20 2 20
v -40 2 -20
v 20 2 -20
v -40 4 40
v -20 4 40
v 20 4 40
v 40 4 40
v -40 4 20
v -20 4 20
v -40 4 -20
v 20 4 -20
v -40 4 -40
v 40 4 -40

# faces
f 5/1/1 2/1/1 1/1/1
f 5/2/1 3/2/1 2/2/1
f 6/1/1 4/1/1 3/1/1
f 6/2/1 3/2/1 5/2/1
f 7/1/1 5/1/1 1/1/1
f 8/1/1 5/1/1 7/1/1
f 9/1/1 4/1/1 6/1/1
f 10/1/1 4/1/1 9/1/1
f 13/1/1 12/1/1 11/1/1
f 14/1/1 12/1/1 13/1/1
f 17/1/1 16/1/1 15/1/1
f 18/1/1 16/1/1 17/1/1
f 21/1/1 20/1/1 19/1/1
f 22/1/1 20/1/1 21/1/1
f 23/1/2 24/1/2 27/1/2
f 27/1/2 24/1/2 28/1/2
f 25/1/2 26/1/2 29/1/2
f 29/1/2 26/1/2 30/1/2
f 31/1/2 32/1/2 33/1/2
f 33/1/2 32/1/2 34/1/2
f 35/1/2 36/1/2 37/1/2
f 37/1/2 36/1/2 38/1/2
f 41/1/3 40/1/3 39/1/3
f 42/1/3 40/1/3 41/1/3
f 43/1/3 40/1/3 42/1/3
f 44/2/3 42/2/3 41/2/3
f 45/2/3 42/2/3 44/2/3
f 47/1/3 45/1/3 44/1/3
f 47/1/3 46/1/3 45/1/3
f 48/1/3 46/1/3 47/1/3
f 51/2/3 50/2/3 49/2/3
f 52/2/3 50/2/3 51/2/3
f 55/1/3 54/1/3 53/1/3
f 56/1/3 54/1/3 55/1/3
f 59/1/3 58/1/3 57/1/3
f 60/1/3 58/1/3 59/1/3
f 61/1/4 62/1/4 63/1/4
f 63/1/4 62/1/4 64/1/4
f 65/1/4 66/1/4 67/1/4
f 67/1/4 66/1/4 68/1/4
f 69/1/4 70/1/4 71/1/4
f 71/1/4 70/1/4 72/1/4
f 73/1/4 74/1/4 75/1/4
f 75/1/4 74/1/4 76/1/4
f 81/1/5 78/1/5 77/1/5
f 81/2/5 79/2/5 78/2/5
f 82/1/5 80/1/5 79/1/5
f 82/2/5 79/2/5 81/2/5
f 83/1/5 81/1/5 77/1/5
f 83/1/5 82/1/5 81/1/5
f 84/1/5 82/1/5 83/1/5
f 85/1/5 82/1/5 84/1/5
f 86/1/5 80/1/5 82/1/5
f 86/1/5 82/1/5 85/1/5
f 87/2/5 84/2/5 83/2/5
f 88/1/5 85/1/5 84/1/5
f 88/2/5 84/2/5 87/2/5
f 89/2/5 86/2/5 85/2/5
f 89/1/5 85/1/5 88/1/5
f 89/1/5 88/1/5 87/1/5
f 90/1/5 80/1/5 86/1/5
f 90/2/5 86/2/5 89/2/5
f 91/1/5 89/1/5 87/1/5
f 91/1/5 90/1/5 89/1/5
f 92/1/5 80/1/5 90/1/5
f 92/1/5 90/1/5 91/1/5
f 95/1/5 94/1/5 93/1/5
f 96/1/5 94/1/5 95/1/5
f 99/1/5 98/1/5 97/1/5
f 100/1/5 98/1/5 99/1/5
f 101/1/6 102/1/6 103/1/6
f 103/1/6 102/1/6 104/1/6
f 105/1/6 106/1/6 107/1/6
f 107/1/6 106/1/6 108/1/6
f 109/2/6 110/2/6 112/2/6
f 111/2/6 112/2/6 113/2/6
f 112/2/6 110/2/6 114/2/6
f 113/2/6 112/2/6 114/2/6
f 115/1/6 116/1/6 119/1/6
f 119/1/6 116/1/6 120/1/6
f 117/1/6 118/1/6 122/1/6
f 121/1/6 122/1/6 123/1/6
f 122/1/6 118/1/6 124/1/6
f 123/1/6 122/1/6 124/1/6
